{
  "mockData": {
    "currentPage": 0,
    "totalPages": 2,
    "totalElements": 13,
    "last": false,
    "tripGroups": [
      {
        "tripGroupId": 13,
        "name": "Group Name 13",
        "content": "Group Content 13",
        "maxUserNumber": 13,
        "currentUserNumber": 2,
        "tripArea": "seoul",
        "tripDate": "2023-12-09",
        "dueDate": "2023-11-10",
        "createdAt": "2023-11-10",
        "status": "모집중",
        "thumbnailUrl": "https://d1udi89ozp4mef.cloudfront.net/location%2Fb6280182-8d6d-4057-a5ae-850cf738b48f-seoul1.jpeg",
        "profileUrl": "https://d1udi89ozp4mef.cloudfront.net/location%2F6480bf6a-57df-4395-9970-5979d327b5f2-dev_loopy.png",
        "nickName": "nickname1",
        "age": "25",
        "gender": "남"
      },
      {
        "tripGroupId": 12,
        "name": "Group Name 12",
        "content": "Group Content 12",
        "maxUserNumber": 12,
        "currentUserNumber": 2,
        "tripArea": "seoul",
        "tripDate": "2023-12-09",
        "dueDate": "2023-11-10",
        "createdAt": "2023-11-10",
        "status": "모집중",
        "thumbnailUrl": "https://d1udi89ozp4mef.cloudfront.net/location%2Fb6280182-8d6d-4057-a5ae-850cf738b48f-seoul1.jpeg",
        "profileUrl": "https://d1udi89ozp4mef.cloudfront.net/location%2F6480bf6a-57df-4395-9970-5979d327b5f2-dev_loopy.png",
        "nickName": "nickname1",
        "age": "25",
        "gender": "남"
      },
      {
        "tripGroupId": 11,
        "name": "Group Name 11",
        "content": "Group Content 11",
        "maxUserNumber": 11,
        "currentUserNumber": 2,
        "tripArea": "seoul",
        "tripDate": "2023-12-09",
        "dueDate": "2023-11-10",
        "createdAt": "2023-11-10",
        "status": "모집중",
        "thumbnailUrl": "https://d1udi89ozp4mef.cloudfront.net/location%2Fb6280182-8d6d-4057-a5ae-850cf738b48f-seoul1.jpeg",
        "profileUrl": "https://d1udi89ozp4mef.cloudfront.net/location%2F6480bf6a-57df-4395-9970-5979d327b5f2-dev_loopy.png",
        "nickName": "nickname1",
        "age": "25",
        "gender": "남"
      },
      {
        "tripGroupId": 10,
        "name": "Group Name 10",
        "content": "Group Content 10",
        "maxUserNumber": 11,
        "currentUserNumber": 2,
        "tripArea": "seoul",
        "tripDate": "2023-12-09",
        "dueDate": "2023-11-10",
        "createdAt": "2023-11-10",
        "status": "모집중",
        "thumbnailUrl": "https://d1udi89ozp4mef.cloudfront.net/location%2Fb6280182-8d6d-4057-a5ae-850cf738b48f-seoul1.jpeg",
        "profileUrl": "https://d1udi89ozp4mef.cloudfront.net/location%2F6480bf6a-57df-4395-9970-5979d327b5f2-dev_loopy.png",
        "nickName": "nickname1",
        "age": "25",
        "gender": "남"
      },
      {
        "tripGroupId": 9,
        "name": "Group Name 9",
        "content": "Group Content 9",
        "maxUserNumber": 10,
        "currentUserNumber": 2,
        "tripArea": "seoul",
        "tripDate": "2023-12-09",
        "dueDate": "2023-11-10",
        "createdAt": "2023-11-10",
        "status": "모집중",
        "thumbnailUrl": "https://d1udi89ozp4mef.cloudfront.net/location%2Fb6280182-8d6d-4057-a5ae-850cf738b48f-seoul1.jpeg",
        "profileUrl": "https://d1udi89ozp4mef.cloudfront.net/location%2F6480bf6a-57df-4395-9970-5979d327b5f2-dev_loopy.png",
        "nickName": "nickname1",
        "age": "25",
        "gender": "남"
      },
      {
        "tripGroupId": 8,
        "name": "신라의 뿌리를 찾아서",
        "content": "Group Content 8",
        "maxUserNumber": 10,
        "currentUserNumber": 1,
        "tripArea": "busan",
        "tripDate": "2023-12-08",
        "dueDate": "2023-11-09",
        "createdAt": "2023-11-08",
        "status": "모집중",
        "thumbnailUrl": "https://d1udi89ozp4mef.cloudfront.net/location%2Fb6280182-8d6d-4057-a5ae-850cf738b48f-seoul1.jpeg",
        "profileUrl": "https://d1udi89ozp4mef.cloudfront.net/location%2F6480bf6a-57df-4395-9970-5979d327b5f2-dev_loopy.png",
        "nickName": "nickname1",
        "age": "25",
        "gender": "남"
      },
      {
        "tripGroupId": 7,
        "name": "Group Name 7",
        "content": "Group Content 7",
        "maxUserNumber": 10,
        "currentUserNumber": 1,
        "tripArea": "daegu",
        "tripDate": "2023-12-07",
        "dueDate": "2023-11-08",
        "createdAt": "2023-11-07",
        "status": "모집중",
        "thumbnailUrl": "https://d1udi89ozp4mef.cloudfront.net/location%2Fb6280182-8d6d-4057-a5ae-850cf738b48f-seoul1.jpeg",
        "profileUrl": "https://d1udi89ozp4mef.cloudfront.net/location%2F6480bf6a-57df-4395-9970-5979d327b5f2-dev_loopy.png",
        "nickName": "nickname1",
        "age": "25",
        "gender": "남"
      },
      {
        "tripGroupId": 6,
        "name": "Group Name 6",
        "content": "Group Content 6",
        "maxUserNumber": 10,
        "currentUserNumber": 1,
        "tripArea": "seoul",
        "tripDate": "2023-12-06",
        "dueDate": "2023-11-07",
        "createdAt": "2023-11-06",
        "status": "모집중",
        "thumbnailUrl": "https://d1udi89ozp4mef.cloudfront.net/location%2Fb6280182-8d6d-4057-a5ae-850cf738b48f-seoul1.jpeg",
        "profileUrl": "https://d1udi89ozp4mef.cloudfront.net/location%2F6480bf6a-57df-4395-9970-5979d327b5f2-dev_loopy.png",
        "nickName": "nickname5",
        "age": "35",
        "gender": "남"
      },
      {
        "tripGroupId": 5,
        "name": "Group Name 5",
        "content": "Group Content 5",
        "maxUserNumber": 10,
        "currentUserNumber": 1,
        "tripArea": "seoul",
        "tripDate": "2023-12-05",
        "dueDate": "2023-11-06",
        "createdAt": "2023-11-05",
        "status": "모집중",
        "thumbnailUrl": "https://d1udi89ozp4mef.cloudfront.net/location%2Fb6280182-8d6d-4057-a5ae-850cf738b48f-seoul1.jpeg",
        "profileUrl": "https://d1udi89ozp4mef.cloudfront.net/location%2F6480bf6a-57df-4395-9970-5979d327b5f2-dev_loopy.png",
        "nickName": "nickname3",
        "age": "22",
        "gender": "남"
      },
      {
        "tripGroupId": 4,
        "name": "Group Name 4",
        "content": "Group Content 4",
        "maxUserNumber": 10,
        "currentUserNumber": 1,
        "tripArea": "ulsan",
        "tripDate": "2023-12-04",
        "dueDate": "2023-11-05",
        "createdAt": "2023-11-04",
        "status": "모집중",
        "thumbnailUrl": "https://d1udi89ozp4mef.cloudfront.net/location%2Fb6280182-8d6d-4057-a5ae-850cf738b48f-seoul1.jpeg",
        "profileUrl": "https://d1udi89ozp4mef.cloudfront.net/location%2F6480bf6a-57df-4395-9970-5979d327b5f2-dev_loopy.png",
        "nickName": "nickname2",
        "age": "30",
        "gender": "여"
      },
      {
        "tripGroupId": 3,
        "name": "한복입고 서울여행",
        "content": "Group Content 3",
        "maxUserNumber": 10,
        "currentUserNumber": 1,
        "tripArea": "seoul",
        "tripDate": "2023-12-03",
        "dueDate": "2023-11-04",
        "createdAt": "2023-11-03",
        "status": "마감",
        "thumbnailUrl": "https://d1udi89ozp4mef.cloudfront.net/location%2Fb6280182-8d6d-4057-a5ae-850cf738b48f-seoul1.jpeg",
        "profileUrl": "https://d1udi89ozp4mef.cloudfront.net/location%2F6480bf6a-57df-4395-9970-5979d327b5f2-dev_loopy.png",
        "nickName": "nickname1",
        "age": "25",
        "gender": "남"
      },
      {
        "tripGroupId": 2,
        "name": "서울여행",
        "content": "Group Content 2",
        "maxUserNumber": 10,
        "currentUserNumber": 1,
        "tripArea": "seoul",
        "tripDate": "2023-12-02",
        "dueDate": "2023-11-03",
        "createdAt": "2023-11-02",
        "status": "모집중",
        "thumbnailUrl": "https://d1udi89ozp4mef.cloudfront.net/location%2Fb6280182-8d6d-4057-a5ae-850cf738b48f-seoul1.jpeg",
        "profileUrl": "https://d1udi89ozp4mef.cloudfront.net/location%2F6480bf6a-57df-4395-9970-5979d327b5f2-dev_loopy.png",
        "nickName": "nickname2",
        "age": "30",
        "gender": "여"
      }
    ]
  },
  "messages": {
    "currentPage": 1,
    "totalPages": 4,
    "totalElements": 80,
    "last": false,
    "messages": [
      {
        "userId": "userId1",
        "nickName": "유진",
        "profileUrl": "https://picsum.photos/200",
        "messageId": "messageId1",
        "messageContent": "첫 번째 메세지입니다.",
        "createdAt": "2023-11-12T15:03:17.402Z",
        "isWelcome": false
      },
      {
        "userId": "userId2",
        "nickName": "수진",
        "profileUrl": "https://picsum.photos/200",
        "messageId": "messageId2",
        "messageContent": "두 번째 메세지입니다.",
        "createdAt": "2023-11-12T15:03:18.402Z",
        "isWelcome": false
      },
      {
        "userId": "userId3",
        "nickName": "미진",
        "profileUrl": "https://picsum.photos/200",
        "messageId": "messageId3",
        "messageContent": "세 번째 메세지입니다.",
        "createdAt": "2023-11-12T15:03:19.402Z",
        "isWelcome": false
      },
      {
        "userId": "userId4",
        "nickName": "예진",
        "profileUrl": "https://picsum.photos/200",
        "messageId": "messageId4",
        "messageContent": "",
        "createdAt": "2023-11-12T15:03:20.402Z",
        "isWelcome": true
      },
      {
        "userId": "userId4",
        "nickName": "예진",
        "profileUrl": "https://picsum.photos/200",
        "messageId": "messageId5",
        "messageContent": "네 번째 메세지입니다.",
        "createdAt": "2023-11-12T15:03:21.402Z",
        "isWelcome": false
      },
      {
        "userId": "userId1",
        "nickName": "유진",
        "profileUrl": "https://picsum.photos/200",
        "messageId": "messageId6",
        "messageContent": "다섯 번째 메세지입니다.",
        "createdAt": "2023-11-12T15:03:22.402Z",
        "isWelcome": false
      },
      {
        "userId": "userId5",
        "nickName": "가진",
        "profileUrl": "https://picsum.photos/200",
        "messageId": "messageId7",
        "messageContent": "여섯 번째 메세지입니다.",
        "createdAt": "2023-11-12T15:03:23.402Z",
        "isWelcome": false
      },
      {
        "userId": "userId8",
        "nickName": "나진",
        "profileUrl": "https://picsum.photos/200",
        "messageId": "messageId8",
        "messageContent": "일곱 번째 메세지입니다.",
        "createdAt": "2023-11-12T15:03:24.402Z",
        "isWelcome": false
      },
      {
        "userId": "userId9",
        "nickName": "다진",
        "profileUrl": "https://picsum.photos/200",
        "messageId": "messageId9",
        "messageContent": "여덟 번째 메세지입니다.",
        "createdAt": "2023-11-12T15:03:25.402Z",
        "isWelcome": false
      },
      {
        "userId": "userId10",
        "nickName": "라진",
        "profileUrl": "https://picsum.photos/200",
        "messageId": "messageId10",
        "messageContent": "",
        "createdAt": "2023-11-12T15:03:26.402Z",
        "isWelcome": true
      },
      {
        "userId": "userId10",
        "nickName": "라진",
        "profileUrl": "https://picsum.photos/200",
        "messageId": "messageId11",
        "messageContent": "아홉 번째 메세지입니다.",
        "createdAt": "2023-11-12T15:03:27.402Z",
        "isWelcome": false
      }
    ]
  }
}
